…
  group_by(Year) %>%
  summarise(
    `Global Sum` = sum(Total.Global.Sum, na.rm = TRUE),
    `IT & Premises` = sum(Total.IT.Premises, na.rm = TRUE),
    `PCO Payments` = sum(Total.PCO, na.rm = TRUE),
    `Contracted Services` = sum(Total.Contracted.Services, na.rm = TRUE),
    `Prescribing` = sum(Total.Prescribing, na.rm = TRUE),
    `COVID-19` = sum(Total.COVID, na.rm = TRUE),
    .groups = "drop"
  ) %>%
  pivot_longer(cols = -Year, names_to = "Payment Category", values_to = "Total (£)") %>%
  mutate(`Total (£)` = label_comma()(round(`Total (£)`)))
```

    # A tibble: 54 × 3
        Year `Payment Category`  `Total (£)`  
       <dbl> <chr>               <chr>        
     1  2015 Global Sum          4,410,434,227
     2  2015 IT & Premises       672,107,043  
     3  2015 PCO Payments        611,784,475  
     4  2015 Contracted Services 802,764,294  
     5  2015 Prescribing         770,841,139  
     6  2015 COVID-19            0            
     7  2016 Global Sum          4,606,796,159
     8  2016 IT & Premises       739,487,955  
     9  2016 PCO Payments        462,787,554  
    10  2016 Contracted Services 901,854,909  
    # ℹ 44 more rows
…
