…
# remove duplicates, keeping lowest value of year
closure <- closure %>%
  group_by(Practice.Code) %>%
  filter(closureYear == min(closureYear))

# sort by closure year
closure %>%
  arrange(closureYear) %>%
  print()
```

    ## # A tibble: 1,347 × 4
    ## # Groups:   Practice.Code [1,227]
    ##    Practice.Code Practice.Close.Date reportedYear closureYear
    ##    <chr>         <date>              <chr>              <dbl>
    ##  1 Y02424        2013-07-31          2023                2013
    ##  2 J82651        2013-10-31          2022                2013
    ##  3 Y02424        2013-07-31          2022                2013
    ##  4 J82620        2014-08-31          2022                2014
    ##  5 L83132        2014-11-30          2022                2014
    ##  6 F85680        2014-10-16          2016                2014
    ##  7 N85056        2014-06-30          2015                2014
    ##  8 Y02664        2014-06-30          2015                2014
    ##  9 Y02673        2014-08-31          2015                2014
    ## 10 Y02880        2014-12-14          2015                2014
    ## # ℹ 1,337 more rows
…
